…
``` r
patho_focus <- patho_diff %>% filter(#var_type == "SNV", 
  gene_info %in% actionable_genes)
patho_actio <- patho_focus %>% group_by(gene_info) %>% 
                        summarize(n_IDs = n(), 
                                  n_mod = length(nc[nc != "Equal" & nc != "Allele swapping" & nc != "Reference mismatch"]),
                        prop_diff = n_mod / n_IDs)

patho_actio %>% filter(n_IDs > 10) %>% arrange(desc(prop_diff))
```

```
## # A tibble: 110 × 4
##    gene_info n_IDs n_mod prop_diff
##    <chr>     <int> <int>     <dbl>
##  1 HRAS         29    17     0.586
##  2 CSF1R        50    28     0.56 
##  3 RECQL4      144    78     0.542
##  4 FLT4         15     8     0.533
##  5 NRAS         23    11     0.478
##  6 FANCA       371   152     0.410
##  7 BRCA1      2960  1183     0.400
##  8 STK11       168    62     0.369
##  9 TP53        451   166     0.368
## 10 PAX3         51    18     0.353
## # ℹ 100 more rows
```
…
